{
  "total": 1116597,
  "offset": 0,
  "next": 1,
  "data": [
    {
      "paperId": "49b66b980c91f989637b089c2e8284af443aaa25",
      "corpusId": 258426653,
      "publicationVenue": null,
      "url": "https://www.semanticscholar.org/paper/49b66b980c91f989637b089c2e8284af443aaa25",
      "title": "Students\u2019 voices on generative AI: perceptions, benefits, and challenges in higher education",
      "venue": "International Journal of Educational Technology in Higher Education",
      "year": 2023,
      "referenceCount": 57,
      "citationCount": 1613,
      "influentialCitationCount": 117,
      "isOpenAccess": true,
      "openAccessPdf": {
        "url": "https://educationaltechnologyjournal.springeropen.com/counter/pdf/10.1186/s41239-023-00411-8",
        "status": "GOLD",
        "license": "CCBY",
        "disclaimer": "Notice: Paper or abstract available at https://arxiv.org/abs/2305.00290, which is subject to the license by the author or copyright owner provided with this content. Please go to the source to verify the license and copyright information for your use."
      },
      "fieldsOfStudy": [
        "Computer Science"
      ],
      "s2FieldsOfStudy": [
        {
          "category": "Computer Science",
          "source": "external"
        },
        {
          "category": "Education",
          "source": "s2-fos-model"
        },
        {
          "category": "Computer Science",
          "source": "s2-fos-model"
        }
      ],
      "tldr": {
        "model": "tldr@v2.0.0",
        "text": "Students\u2019 perceptions of generative AI technologies in higher education were explored, including familiarity, potential benefits, and challenges, and insights can inform policy development around the integration of GenAI technologies into higher education, helping to create well-informed guidelines and strategies for responsible and effective implementation."
      },
      "publicationTypes": [
        "JournalArticle",
        "Review"
      ],
      "publicationDate": "2023-04-29",
      "journal": {
        "name": "International Journal of Educational Technology in Higher Education",
        "volume": "20"
      },
      "citationStyles": {
        "bibtex": "@Article{Chan2023StudentsVO,\n author = {C. Chan and Wenjie Hu},\n booktitle = {International Journal of Educational Technology in Higher Education},\n journal = {International Journal of Educational Technology in Higher Education},\n title = {Students\u2019 voices on generative AI: perceptions, benefits, and challenges in higher education},\n volume = {20},\n year = {2023}\n}\n"
      },
      "authors": [
        {
          "authorId": "40588014",
          "name": "C. Chan"
        },
        {
          "authorId": "2110231364",
          "name": "Wenjie Hu"
        }
      ],
      "abstract": "This study explores university students\u2019 perceptions of generative AI (GenAI) technologies, such as ChatGPT, in higher education, focusing on familiarity, their willingness to engage, potential benefits and challenges, and effective integration. A survey of 399 undergraduate and postgraduate students from various disciplines in Hong Kong revealed a generally positive attitude towards GenAI in teaching and learning. Students recognized the potential for personalized learning support, writing and brainstorming assistance, and research and analysis capabilities. However, concerns about accuracy, privacy, ethical issues, and the impact on personal development, career prospects, and societal values were also expressed. According to John Biggs\u2019 3P model, student perceptions significantly influence learning approaches and outcomes. By understanding students\u2019 perceptions, educators and policymakers can tailor GenAI technologies to address needs and concerns while promoting effective learning outcomes. Insights from this study can inform policy development around the integration of GenAI technologies into higher education. By understanding students\u2019 perceptions and addressing their concerns, policymakers can create well-informed guidelines and strategies for the responsible and effective implementation of GenAI tools, ultimately enhancing teaching and learning experiences in higher education. This study focuses on the integration of generative AI (GenAI) technologies, like ChatGPT, into higher education settings. University students\u2019 perceptions of generative AI technologies in higher education were explored, including familiarity, potential benefits, and challenges. A survey of 399 undergraduate and postgraduate students from various disciplines in Hong Kong revealed a generally positive attitude towards GenAI in teaching and learning. Insights from this study can inform policy development around the integration of GenAI technologies into higher education, helping to create well-informed guidelines and strategies for responsible and effective implementation. This study focuses on the integration of generative AI (GenAI) technologies, like ChatGPT, into higher education settings. University students\u2019 perceptions of generative AI technologies in higher education were explored, including familiarity, potential benefits, and challenges. A survey of 399 undergraduate and postgraduate students from various disciplines in Hong Kong revealed a generally positive attitude towards GenAI in teaching and learning. Insights from this study can inform policy development around the integration of GenAI technologies into higher education, helping to create well-informed guidelines and strategies for responsible and effective implementation."
    }
  ]
}